0.42|30.7|1.75|6@4|1@2|26@6
0.2|0.4|0.42|0.4|0.005|250|1000
13 0.38 1.30
13 1.17 1.30
13 1.96 1.30
13 2.74 1.30
13 3.53 1.30
13 4.32 1.30
13 5.11 1.30
13 5.89 1.30
13 6.68 1.30
13 7.47 1.30
13 8.25 1.30
13 9.04 1.30
13 9.83 1.30
13 10.62 1.30
13 11.40 1.30
13 12.19 1.30
13 12.98 1.30
13 13.77 1.30
13 14.55 1.30
13 15.75 1.30
13 16.94 1.30
13 17.86 1.30
13 18.77 1.30
13 19.68 1.30
13 20.60 1.30
13 21.51 1.30
13 0.38 0.86
13 1.17 0.86
13 1.96 0.86
13 2.74 0.86
13 3.53 0.86
13 4.32 0.86
13 5.11 0.86
13 5.89 0.86
13 6.68 0.86
13 7.47 0.86
13 8.25 0.86
13 9.04 0.86
13 9.83 0.86
13 10.62 0.86
13 11.40 0.86
13 12.19 0.86
13 12.98 0.86
13 13.77 0.86
13 14.55 0.86
13 15.75 0.86
13 16.94 0.86
13 17.86 0.86
13 18.77 0.86
13 19.68 0.86
13 20.60 0.86
13 21.51 0.86
13 0.38 0.42
13 1.17 0.42
13 1.96 0.42
13 2.74 0.42
13 3.53 0.42
13 4.32 0.42
13 5.11 0.42
13 5.89 0.42
13 6.68 0.42
13 7.47 0.42
13 8.25 0.42
13 9.04 0.42
13 9.83 0.42
13 10.62 0.42
13 11.40 0.42
13 12.19 0.42
13 12.98 0.42
13 13.77 0.42
13 14.55 0.42
13 15.75 0.42
13 16.94 0.42
13 17.86 0.42
13 18.77 0.42
13 19.68 0.42
13 20.60 0.42
13 21.51 0.42
13 0.38 -1.30
13 1.17 -1.30
13 1.96 -1.30
13 2.74 -1.30
13 3.53 -1.30
13 4.32 -1.30
13 5.11 -1.30
13 5.89 -1.30
13 6.68 -1.30
13 7.47 -1.30
13 8.25 -1.30
13 9.04 -1.30
13 9.83 -1.30
13 10.62 -1.30
13 11.40 -1.30
13 12.19 -1.30
13 12.98 -1.30
13 13.77 -1.30
13 14.55 -1.30
13 15.75 -1.30
13 16.94 -1.30
13 17.86 -1.30
13 18.77 -1.30
13 19.68 -1.30
13 20.60 -1.30
13 21.51 -1.30
13 0.38 -0.86
13 1.17 -0.86
13 1.96 -0.86
13 2.74 -0.86
13 3.53 -0.86
13 4.32 -0.86
13 5.11 -0.86
13 5.89 -0.86
13 6.68 -0.86
13 7.47 -0.86
13 8.25 -0.86
13 9.04 -0.86
13 9.83 -0.86
13 10.62 -0.86
13 11.40 -0.86
13 12.19 -0.86
13 12.98 -0.86
13 13.77 -0.86
13 14.55 -0.86
13 15.75 -0.86
13 16.94 -0.86
13 17.86 -0.86
13 18.77 -0.86
13 19.68 -0.86
13 20.60 -0.86
13 21.51 -0.86
13 0.38 -0.42
13 1.17 -0.42
13 1.96 -0.42
13 2.74 -0.42
13 3.53 -0.42
13 4.32 -0.42
13 5.11 -0.42
13 5.89 -0.42
13 6.68 -0.42
13 7.47 -0.42
13 8.25 -0.42
13 9.04 -0.42
13 9.83 -0.42
13 10.62 -0.42
13 11.40 -0.42
13 12.19 -0.42
13 12.98 -0.42
13 13.77 -0.42
13 14.55 -0.42
13 15.75 -0.42
13 16.94 -0.42
13 17.86 -0.42
13 18.77 -0.42
13 19.68 -0.42
13 20.60 -0.42
13 21.51 -0.42
13 22.43 -0.42
13 22.43 -0.86
13 25.15 1.25
13 26.11 1.25
13 27.08 1.25
13 28.04 1.25
13 29.01 1.25
13 29.97 1.25
13 25.15 -1.25
13 26.11 -1.25
13 27.08 -1.25
13 28.04 -1.25
13 29.01 -1.25
13 29.97 -1.25
13 25.15 0.72
13 26.11 0.72
13 27.08 0.72
13 28.04 0.72
13 29.01 0.72
13 29.97 0.72
13 25.15 -0.72
13 26.11 -0.72
13 27.08 -0.72
13 28.04 -0.72
13 29.01 -0.72
13 29.97 -0.72
16 0.00 1.30
16 0.79 1.30
16 1.57 1.30
16 2.36 1.30
16 3.15 1.30
16 3.94 1.30
16 4.72 1.30
16 5.51 1.30
16 6.30 1.30
16 7.09 1.30
16 7.87 1.30
16 8.66 1.30
16 9.45 1.30
16 10.24 1.30
16 11.02 1.30
16 11.81 1.30
16 12.60 1.30
16 13.39 1.30
16 14.17 1.30
16 15.37 1.30
16 16.56 1.30
16 17.48 1.30
16 18.39 1.30
16 19.30 1.30
16 20.22 1.30
16 21.13 1.30
16 0.00 0.86
16 0.79 0.86
16 1.57 0.86
16 2.36 0.86
16 3.15 0.86
16 3.94 0.86
16 4.72 0.86
16 5.51 0.86
16 6.30 0.86
16 7.09 0.86
16 7.87 0.86
16 8.66 0.86
16 9.45 0.86
16 10.24 0.86
16 11.02 0.86
16 11.81 0.86
16 12.60 0.86
16 13.39 0.86
16 14.17 0.86
16 15.37 0.86
16 16.56 0.86
16 17.48 0.86
16 18.39 0.86
16 19.30 0.86
16 20.22 0.86
16 21.13 0.86
16 0.00 0.42
16 0.79 0.42
16 1.57 0.42
16 2.36 0.42
16 3.15 0.42
16 3.94 0.42
16 4.72 0.42
16 5.51 0.42
16 6.30 0.42
16 7.09 0.42
16 7.87 0.42
16 8.66 0.42
16 9.45 0.42
16 10.24 0.42
16 11.02 0.42
16 11.81 0.42
16 12.60 0.42
16 13.39 0.42
16 14.17 0.42
16 15.37 0.42
16 16.56 0.42
16 17.48 0.42
16 18.39 0.42
16 19.30 0.42
16 20.22 0.42
16 21.13 0.42
16 0.00 -1.30
16 0.79 -1.30
16 1.57 -1.30
16 2.36 -1.30
16 3.15 -1.30
16 3.94 -1.30
16 4.72 -1.30
16 5.51 -1.30
16 6.30 -1.30
16 7.09 -1.30
16 7.87 -1.30
16 8.66 -1.30
16 9.45 -1.30
16 10.24 -1.30
16 11.02 -1.30
16 11.81 -1.30
16 12.60 -1.30
16 13.39 -1.30
16 14.17 -1.30
16 15.37 -1.30
16 16.56 -1.30
16 17.48 -1.30
16 18.39 -1.30
16 19.30 -1.30
16 20.22 -1.30
16 21.13 -1.30
16 0.00 -0.86
16 0.79 -0.86
16 1.57 -0.86
16 2.36 -0.86
16 3.15 -0.86
16 3.94 -0.86
16 4.72 -0.86
16 5.51 -0.86
16 6.30 -0.86
16 7.09 -0.86
16 7.87 -0.86
16 8.66 -0.86
16 9.45 -0.86
16 10.24 -0.86
16 11.02 -0.86
16 11.81 -0.86
16 12.60 -0.86
16 13.39 -0.86
16 14.17 -0.86
16 15.37 -0.86
16 16.56 -0.86
16 17.48 -0.86
16 18.39 -0.86
16 19.30 -0.86
16 20.22 -0.86
16 21.13 -0.86
16 0.00 -0.42
16 0.79 -0.42
16 1.57 -0.42
16 2.36 -0.42
16 3.15 -0.42
16 3.94 -0.42
16 4.72 -0.42
16 5.51 -0.42
16 6.30 -0.42
16 7.09 -0.42
16 7.87 -0.42
16 8.66 -0.42
16 9.45 -0.42
16 10.24 -0.42
16 11.02 -0.42
16 11.81 -0.42
16 12.60 -0.42
16 13.39 -0.42
16 14.17 -0.42
16 15.37 -0.42
16 16.56 -0.42
16 17.48 -0.42
16 18.39 -0.42
16 19.30 -0.42
16 20.22 -0.42
16 21.13 -0.42
16 22.05 -0.42
16 22.05 -0.86
16 24.77 1.25
16 25.73 1.25
16 26.70 1.25
16 27.66 1.25
16 28.63 1.25
16 29.59 1.25
16 24.77 -1.25
16 25.73 -1.25
16 26.70 -1.25
16 27.66 -1.25
16 28.63 -1.25
16 29.59 -1.25
16 24.77 0.72
16 25.73 0.72
16 26.70 0.72
16 27.66 0.72
16 28.63 0.72
16 29.59 0.72
16 24.77 -0.72
16 25.73 -0.72
16 26.70 -0.72
16 27.66 -0.72
16 28.63 -0.72
16 29.59 -0.72
16 -0.51 1.75
16 -0.38 1.75
16 -0.25 1.75
16 -0.13 1.75
16 0.00 1.75
16 0.13 1.75
16 0.25 1.75
16 0.38 1.75
16 0.51 1.75
16 0.64 1.75
16 0.76 1.75
16 0.89 1.75
16 1.02 1.75
16 1.14 1.75
16 1.27 1.75
16 1.40 1.75
16 1.52 1.75
16 1.65 1.75
16 1.78 1.75
16 1.91 1.75
16 2.03 1.75
16 2.16 1.75
16 2.29 1.75
16 2.41 1.75
16 2.54 1.75
16 2.67 1.75
16 2.79 1.75
16 2.92 1.75
16 3.05 1.75
16 3.17 1.75
16 3.30 1.75
16 3.43 1.75
16 3.56 1.75
16 3.68 1.75
16 3.81 1.75
16 3.94 1.75
16 4.06 1.75
16 4.19 1.75
16 4.32 1.75
16 4.44 1.75
16 4.57 1.75
16 4.70 1.75
16 4.83 1.75
16 4.95 1.75
16 5.08 1.75
16 5.21 1.75
16 5.33 1.75
16 5.46 1.75
16 5.59 1.75
16 5.71 1.75
16 5.84 1.75
16 5.97 1.75
16 6.10 1.75
16 6.22 1.75
16 6.35 1.75
16 6.48 1.75
16 6.60 1.75
16 6.73 1.75
16 6.86 1.75
16 6.98 1.75
16 7.11 1.75
16 7.24 1.75
16 7.37 1.75
16 7.49 1.75
16 7.62 1.75
16 7.75 1.75
16 7.87 1.75
16 8.00 1.75
16 8.13 1.75
16 8.25 1.75
16 8.38 1.75
16 8.51 1.75
16 8.64 1.75
16 8.76 1.75
16 8.89 1.75
16 9.02 1.75
16 9.14 1.75
16 9.27 1.75
16 9.40 1.75
16 9.53 1.75
16 9.65 1.75
16 9.78 1.75
16 9.91 1.75
16 10.03 1.75
16 10.16 1.75
16 10.29 1.75
16 10.41 1.75
16 10.54 1.75
16 10.67 1.75
16 10.79 1.75
16 10.92 1.75
16 11.05 1.75
16 11.18 1.75
16 11.30 1.75
16 11.43 1.75
16 11.56 1.75
16 11.68 1.75
16 11.81 1.75
16 11.94 1.75
16 12.06 1.75
16 12.19 1.75
16 12.32 1.75
16 12.45 1.75
16 12.57 1.75
16 12.70 1.75
16 12.83 1.75
16 12.95 1.75
16 13.08 1.75
16 13.21 1.75
16 13.33 1.75
16 13.46 1.75
16 13.59 1.75
16 13.72 1.75
16 13.84 1.75
16 13.97 1.75
16 14.10 1.75
16 14.22 1.75
16 14.35 1.75
16 14.48 1.75
16 14.60 1.75
16 14.73 1.75
16 14.86 1.75
16 14.99 1.75
16 15.11 1.75
16 15.24 1.75
16 15.37 1.75
16 15.49 1.75
16 15.62 1.75
16 15.75 1.75
16 15.88 1.75
16 16.00 1.75
16 16.13 1.75
16 16.26 1.75
16 16.38 1.75
16 16.51 1.75
16 16.64 1.75
16 16.76 1.75
16 16.89 1.75
16 17.02 1.75
16 17.14 1.75
16 17.27 1.75
16 17.40 1.75
16 17.53 1.75
16 17.65 1.75
16 17.78 1.75
16 17.91 1.75
16 18.03 1.75
16 18.16 1.75
16 18.29 1.75
16 18.41 1.75
16 18.54 1.75
16 18.67 1.75
16 18.80 1.75
16 18.92 1.75
16 19.05 1.75
16 19.18 1.75
16 19.30 1.75
16 19.43 1.75
16 19.56 1.75
16 19.68 1.75
16 19.81 1.75
16 19.94 1.75
16 20.07 1.75
16 20.19 1.75
16 20.32 1.75
16 20.45 1.75
16 20.57 1.75
16 20.70 1.75
16 20.83 1.75
16 20.95 1.75
16 21.08 1.75
16 21.21 1.75
16 21.34 1.75
16 21.46 1.75
16 21.59 1.75
16 21.72 1.75
16 21.84 1.75
16 21.97 1.75
16 22.10 1.75
16 22.22 1.75
16 22.35 1.75
16 22.48 1.75
16 22.61 1.75
16 22.73 1.75
16 22.86 1.75
16 22.99 1.75
16 23.11 1.75
16 23.24 1.75
16 23.37 1.75
16 23.49 1.75
16 23.62 1.75
16 23.75 1.75
16 23.88 1.75
16 24.00 1.75
16 24.13 1.75
16 24.26 1.75
16 24.38 1.75
16 24.51 1.75
16 24.64 1.75
16 24.77 1.75
16 24.89 1.75
16 25.02 1.75
16 25.15 1.75
16 25.27 1.75
16 25.40 1.75
16 25.53 1.75
16 25.65 1.75
16 25.78 1.75
16 25.91 1.75
16 26.04 1.75
16 26.16 1.75
16 26.29 1.75
16 26.42 1.75
16 26.54 1.75
16 26.67 1.75
16 26.80 1.75
16 26.92 1.75
16 27.05 1.75
16 27.18 1.75
16 27.30 1.75
16 27.43 1.75
16 27.56 1.75
16 27.69 1.75
16 27.81 1.75
16 27.94 1.75
16 28.07 1.75
16 28.19 1.75
16 28.32 1.75
16 28.45 1.75
16 28.57 1.75
16 28.70 1.75
16 28.83 1.75
16 28.96 1.75
16 29.08 1.75
16 29.21 1.75
16 29.34 1.75
16 29.46 1.75
16 29.59 1.75
16 29.72 1.75
16 29.84 1.75
16 29.97 1.75
16 30.10 1.75
16 30.23 1.75
16 30.35 1.75
16 30.48 1.75
16 31.45 1.75
16 31.50 1.75
16 31.62 1.75
16 31.75 1.75
16 31.88 1.75
16 32.00 1.75
16 -0.51 -1.75
16 -0.38 -1.75
16 -0.25 -1.75
16 -0.13 -1.75
16 0.00 -1.75
16 0.13 -1.75
16 0.25 -1.75
16 0.38 -1.75
16 0.51 -1.75
16 0.64 -1.75
16 0.76 -1.75
16 0.89 -1.75
16 1.02 -1.75
16 1.14 -1.75
16 1.27 -1.75
16 1.40 -1.75
16 1.52 -1.75
16 1.65 -1.75
16 1.78 -1.75
16 1.91 -1.75
16 2.03 -1.75
16 2.16 -1.75
16 2.29 -1.75
16 2.41 -1.75
16 2.54 -1.75
16 2.67 -1.75
16 2.79 -1.75
16 2.92 -1.75
16 3.05 -1.75
16 3.17 -1.75
16 3.30 -1.75
16 3.43 -1.75
16 3.56 -1.75
16 3.68 -1.75
16 3.81 -1.75
16 3.94 -1.75
16 4.06 -1.75
16 4.19 -1.75
16 4.32 -1.75
16 4.44 -1.75
16 4.57 -1.75
16 4.70 -1.75
16 4.83 -1.75
16 4.95 -1.75
16 5.08 -1.75
16 5.21 -1.75
16 5.33 -1.75
16 5.46 -1.75
16 5.59 -1.75
16 5.71 -1.75
16 5.84 -1.75
16 5.97 -1.75
16 6.10 -1.75
16 6.22 -1.75
16 6.35 -1.75
16 6.48 -1.75
16 6.60 -1.75
16 6.73 -1.75
16 6.86 -1.75
16 6.98 -1.75
16 7.11 -1.75
16 7.24 -1.75
16 7.37 -1.75
16 7.49 -1.75
16 7.62 -1.75
16 7.75 -1.75
16 7.87 -1.75
16 8.00 -1.75
16 8.13 -1.75
16 8.25 -1.75
16 8.38 -1.75
16 8.51 -1.75
16 8.64 -1.75
16 8.76 -1.75
16 8.89 -1.75
16 9.02 -1.75
16 9.14 -1.75
16 9.27 -1.75
16 9.40 -1.75
16 9.53 -1.75
16 9.65 -1.75
16 9.78 -1.75
16 9.91 -1.75
16 10.03 -1.75
16 10.16 -1.75
16 10.29 -1.75
16 10.41 -1.75
16 10.54 -1.75
16 10.67 -1.75
16 10.79 -1.75
16 10.92 -1.75
16 11.05 -1.75
16 11.18 -1.75
16 11.30 -1.75
16 11.43 -1.75
16 11.56 -1.75
16 11.68 -1.75
16 11.81 -1.75
16 11.94 -1.75
16 12.06 -1.75
16 12.19 -1.75
16 12.32 -1.75
16 12.45 -1.75
16 12.57 -1.75
16 12.70 -1.75
16 12.83 -1.75
16 12.95 -1.75
16 13.08 -1.75
16 13.21 -1.75
16 13.33 -1.75
16 13.46 -1.75
16 13.59 -1.75
16 13.72 -1.75
16 13.84 -1.75
16 13.97 -1.75
16 14.10 -1.75
16 14.22 -1.75
16 14.35 -1.75
16 14.48 -1.75
16 14.60 -1.75
16 14.73 -1.75
16 14.86 -1.75
16 14.99 -1.75
16 15.11 -1.75
16 15.24 -1.75
16 15.37 -1.75
16 15.49 -1.75
16 15.62 -1.75
16 15.75 -1.75
16 15.88 -1.75
16 16.00 -1.75
16 16.13 -1.75
16 16.26 -1.75
16 16.38 -1.75
16 16.51 -1.75
16 16.64 -1.75
16 16.76 -1.75
16 16.89 -1.75
16 17.02 -1.75
16 17.14 -1.75
16 17.27 -1.75
16 17.40 -1.75
16 17.53 -1.75
16 17.65 -1.75
16 17.78 -1.75
16 17.91 -1.75
16 18.03 -1.75
16 18.16 -1.75
16 18.29 -1.75
16 18.41 -1.75
16 18.54 -1.75
16 18.67 -1.75
16 18.80 -1.75
16 18.92 -1.75
16 19.05 -1.75
16 19.18 -1.75
16 19.30 -1.75
16 19.43 -1.75
16 19.56 -1.75
16 19.68 -1.75
16 19.81 -1.75
16 19.94 -1.75
16 20.07 -1.75
16 20.19 -1.75
16 20.32 -1.75
16 20.45 -1.75
16 20.57 -1.75
16 20.70 -1.75
16 20.83 -1.75
16 20.95 -1.75
16 21.08 -1.75
16 21.21 -1.75
16 21.34 -1.75
16 21.46 -1.75
16 21.59 -1.75
16 21.72 -1.75
16 21.84 -1.75
16 21.97 -1.75
16 22.10 -1.75
16 22.22 -1.75
16 22.35 -1.75
16 22.48 -1.75
16 22.61 -1.75
16 22.73 -1.75
16 22.86 -1.75
16 22.99 -1.75
16 23.11 -1.75
16 23.24 -1.75
16 23.37 -1.75
16 23.49 -1.75
16 23.62 -1.75
16 23.75 -1.75
16 23.88 -1.75
16 24.00 -1.75
16 24.13 -1.75
16 24.26 -1.75
16 24.38 -1.75
16 24.51 -1.75
16 24.64 -1.75
16 24.77 -1.75
16 24.89 -1.75
16 25.02 -1.75
16 25.15 -1.75
16 25.27 -1.75
16 25.40 -1.75
16 25.53 -1.75
16 25.65 -1.75
16 25.78 -1.75
16 25.91 -1.75
16 26.04 -1.75
16 26.16 -1.75
16 26.29 -1.75
16 26.42 -1.75
16 26.54 -1.75
16 26.67 -1.75
16 26.80 -1.75
16 26.92 -1.75
16 27.05 -1.75
16 27.18 -1.75
16 27.30 -1.75
16 27.43 -1.75
16 27.56 -1.75
16 27.69 -1.75
16 27.81 -1.75
16 27.94 -1.75
16 28.07 -1.75
16 28.19 -1.75
16 28.32 -1.75
16 28.45 -1.75
16 28.57 -1.75
16 28.70 -1.75
16 28.83 -1.75
16 28.96 -1.75
16 29.08 -1.75
16 29.21 -1.75
16 29.34 -1.75
16 29.46 -1.75
16 29.59 -1.75
16 29.72 -1.75
16 29.84 -1.75
16 29.97 -1.75
16 30.10 -1.75
16 30.23 -1.75
16 30.35 -1.75
16 30.48 -1.75
16 30.61 -1.75
16 30.73 -1.75
16 30.86 -1.75
16 30.99 -1.75
16 31.11 -1.75
16 31.24 -1.75
16 31.37 -1.75
16 31.50 -1.75
16 31.62 -1.75
16 31.75 -1.75
16 31.88 -1.75
16 32.00 -1.75
16 30.56 1.30
16 30.56 -1.30
16 30.56 0.85
16 30.56 -0.85
16 30.56 0.42
16 30.56 -0.42
16 31.62 -1.65
16 31.62 -1.52
16 31.62 -1.40
16 31.62 -1.27
16 31.62 -1.14
16 31.62 -1.02
16 31.62 -0.89
16 31.62 -0.76
16 31.62 -0.64
16 31.62 -0.51
16 31.62 -0.38
16 31.62 -0.25
16 31.62 -0.13
16 31.62 0.00
16 31.62 0.13
16 31.62 0.25
16 31.62 0.38
16 31.62 0.51
16 31.62 0.64
16 31.62 0.76
16 31.62 0.89
16 31.62 1.02
16 31.62 1.14
16 31.62 1.27
16 31.62 1.40
16 31.62 1.52
16 31.62 1.65
16 -0.25 -1.65
16 -0.25 -1.52
16 -0.25 -1.40
16 -0.25 -1.27
16 -0.25 -1.14
16 -0.25 -1.02
16 -0.25 -0.89
16 -0.25 -0.76
16 -0.25 -0.64
16 -0.25 -0.51
16 -0.25 -0.38
16 -0.25 -0.25
16 -0.25 -0.13
16 -0.25 0.00
16 -0.25 0.13
16 -0.25 0.25
16 -0.25 0.38
16 -0.25 0.51
16 -0.25 0.64
16 -0.25 0.76
16 -0.25 0.89
16 -0.25 1.02
16 -0.25 1.14
16 -0.25 1.27
16 -0.25 1.40
16 -0.25 1.52
16 -0.25 1.65
16 22.43 1.30
16 22.43 0.86
16 22.43 0.42
16 22.05 -1.30
16 22.99 1.30
16 22.99 -0.42
16 22.99 -1.30
16 22.99 -0.86
16 22.99 0.86
16 22.99 0.42
16 24.38 1.30
16 24.38 -0.42
16 24.38 -1.30
16 24.38 -0.86
16 24.38 0.86
16 24.38 0.42
16 23.37 0.42
16 23.75 0.42
16 24.13 0.42
16 23.37 -0.42
16 23.75 -0.42
16 24.13 -0.42
