261.468
233.719
273.07
259.853
247.679
183.921
471.292
216.552
236.559
246.375
331.563
187.261
269.499
284.243
415.89
202.589
257.515
219.648
334.216
181.133
356.993
198.065
444.329
213.247
227.74
273.957
323.237
195.556
364.945
265.24
370.356
298.284
185.651
207.116
337.146
166.568
297.006
243.449
304.053
181.043
263.251
220.537
456.418
205.172
323.306
254.838
349.97
175.942
331.136
190.445
383.455
239.098
302.412
245.448
266.662
298.777
255.825
188.851
476.973
205.591
264.699
257.643
393.488
194.183
313.197
159.854
404.638
207.521
231.279
293.908
402.847
135.765
286.563
284.89
300.552
249.929
332.502
247.339
400.563
182.122
336.27
208.635
272.709
247.716
328.849
193.297
410.552
166.521
292.553
184.132
322.004
270.389
244.361
230.441
455.221
192.033
227.728
372.192
268.08
170.053
271.52
202.343
447.475
212.828
251.22
275.752
344.113
177.852
407.142
212.503
404.99
230.882
221.702
263.31
321.671
210.083
327.109
227.17
460.591
208.849
213.944
278.517
348.567
183.831
387.125
244.892
321.669
227.23
268.818
206.594
385.897
153.223
327.712
262.587
304.158
205.184
276.702
182.373
375.063
208.418
251.49
286.497
344.528
231.064
250.183
181.708
429.585
219.003
254.673
231.917
457.22
193.629
323.763
220.64
415.721
173.611
247.161
330.653
364.287
122.403
474.408
227.041
295.479
275.494
229.809
266.707
374.001
197.416
288.002
222.477
284.095
254.902
296.167
219.323
466.644
196.986
261.232
222.647
415.356
188.681
270.479
262.053
410.532
221.659
257.965
272.026
266.436
238.961
316.984
229.511
500.269
165.636
233.577
274.146
309.026
249.532
418.304
185.41
422.778
165.735
205.104
255.27
453.876
179.085
340.443
275.888
362.22
211.768
197.389
224.323
380.98
204.562
304.096
279.049
336.041
201.692
308.959
226.781
402.537
158.704
429.93
223.413
325.384
326.171
251.296
188.228
400.693
191.847
273.402
253.052
312.368
219.499
268.035
210.109
420.748
244.874
232.785
311.995
494.35
130.412
347.866
237.443
317.367
180.729
306.33
267.653
398.777
193.911
321.513
205.166
360.865
237.841
268.701
269.308
309.969
202.906
297.201
198.112
342.446
248.573
274.964
220.933
502.433
159.472
321.435
278.268
300.958
226.124
338.826
212.533
476.77
214.816
257.994
260.451
283.813
214.025
278.348
200.489
400.012
202.23
243.987
224.676
350.534
241.999
322.313
196.195
543.768
142.448
225.33
280.035
292.149
149.995
280.497
258.048
352.733
277.166
229.258
242.596
335.946
127.014
419.662
274.507
299.931
247.323
279.072
188.657
411.279
199.745
263.463
218.164
377.838
247.105
266.698
191.181
344.482
244.533
297.12
252.424
333.512
197.009
256.315
248.249
398.244
168.491
220.52
305.025
349.999
163.15
454.105
166.56
330.227
264.351
267.033
291.737
371.444
171.072
282.416
256.614
313.35
209.04
222.273
236.448
388.696
230.612
307.178
239.324
379.792
228.224
289.78
263.832
446.915
130.451
244.682
216.066
285.088
245.787
265.183
195.728
485.096
177.395
252.39
283.004
262.353
314.672
297.404
197.032
493.326
233.968
188.259
232.357
469.828
176.859
335.066
221.584
338.962
215.5
235.814
276.505
412.581
172.566
344.498
269.214
386.429
174.722
233.637
283.607
285.233
148.573
426.707
211.449
284.941
288.086
269.231
233.209
416.183
159.769
279.628
222.942
314.458
191.632
245.854
159.823
409.601
265.953
254.886
314.324
319.615
163.972
245.856
208.198
456.336
220.448
353.289
257.452
347.595
206.317
331.236
173.686
358.194
192.096
311.975
281.46
354.321
208.75
333.834
218.54
345.464
280.121
237.011
251.941
469.654
129.595
284.185
299.474
245.68
234.017
331.502
216.099
457.429
140.38
346.794
223.271
307.358
254.738
338.452
226.718
424.436
238.44
320.636
230.594
255.531
252.223
273.24
202.851
461.618
195.706
230.72
267.876
379.248
167.523
343.456
229.965
422.524
216.462
237.336
276.28
315.713
135.348
362.77
228.238
325.022
249.308
242.558
244.004
337.095
261.009
339.183
253.899
355.247
179.56
258.502
200.023
462.004
200.941
321.901
209.276
319.513
208.55
233.551
196.858
438.257
209.667
251.196
387.512
250.294
197.32
300.625
184.123
381.445
197.272
271.542
273.088
428.492
200.325
370.799
162.758
388.14
213.246
279.03
282.182
463.143
196.216
289.948
235.23
309.553
219.519
205.659
280.878
360.151
113.936
349.077
193.741
285.726
231.947
334.946
217.658
526.94
139.279
279.051
207.37
265.761
244.076
281.844
165.261
425.312
280.76
238.26
277.481
464.568
183.742
312.327
210.3
426.802
210.641
221.266
258.41
388.714
215.488
342.587
175.001
369.788
126.677
227.98
290.987
305.169
208.612
437.93
268.27
369.375
249.578
229.051
248.244
349.067
223.749
360.079
230.315
345.199
212.366
260.139
205.948
520.541
185.811
304.657
345.164
338.699
143.22
248.763
200.247
358.52
184.469
336.824
260.616
254.418
278.55
224.409
209.214
371.729
191.317
291.067
292.825
445.248
207.128
271.162
164.691
384.334
232.577
245.754
264.493
506.488
151.556
287.667
289.189
295.397
240.957
240.576
272.595
377.607
146.983
341.889
223.19
279.098
204.724
292.51
224.511
372.758
223.647
326.103
206.194
345.795
289.989
286.913
198.166
462.068
187.435
217.715
265.911
280.177
211.934
288.784
240.126
536.914
216.59
244.214
284.65
347.008
158.637
495.776
213.326
422.664
109.24
299.013
242.724
320.605
222.531
337.867
257.9
424.404
215.271
207.44
233.142
339.406
175.173
310.1
239.731
340.455
250.456
258.565
219.94
478.866
119.513
306.227
277.102
321.139
227.157
332.213
172.063
365.462
248.563
302.09
298.039
310.971
221.667
225.963
195.408
326.486
178.864
229.982
194.05
414.348
183.835
314.642
160.824
407.16
177.594
246.207
402.879
351.9
141.755
328.044
225.492
302.704
308.529
257.896
272.241
361.573
162.48
384.257
226.663
269.403
215.95
419.99
217.267
445.858
186.818
302.078
221.205
368.806
209.699
277.737
218.812
415.862
188.518
225.028
310.305
298.45
247.967
308.982
258.178
491.344
138.473
238.783
289.671
327.103
217.692
384.6
196.192
378.465
246.941
233.988
233.085
390.553
167.733
333.887
226.686
362.738
281.517
200.512
210.642
379.02
158.401
307.282
290.053
349.35
198.796
267.452
246.155
377.174
165.805
454.201
204.902
330.795
260.858
285.333
208.151
379.924
197.541
262.429
286.947
297.207
208.979
262.748
187.371
446.547
247.145
226.447
263.08
460.541
150.836
281.105
229.212
322.44
217.389
271.591
246.967
342.128
193.25
315.771
249.022
390.164
189.229
291.874
279.244
351.37
228.124
325.872
207.883
271.881
243.9
296.656
214.803
588.344
126.727
287.113
217.502
280.636
271.267
316.525
220.372
466.607
163.557
220.44
251.002
265.367
192.452
296.167
247.942
428.226
194.278
328.932
230.602
383.227
230.737
366.974
168.439
414.287
183.337
199.013
286.597
334.805
145.595
317.887
240.846
367.996
307.842
182.682
302.914
378.282
167.241
328.322
262.708
308.71
200.645
337.258
219.495
402.684
227.753
352.061
226.941
315.373
183.167
267.119
188.979
373.734
306.983
301.908
319.474
318.98
182.926
231.672
155.6
465.077
178.755
219.241
363.85
388.297
180.191
315.28
203.424
389.3
215.641
327.538
308.694
452.099
144.291
311.196
228.787
289.393
260.285
298.465
251.767
423.558
226.16
316.488
224.216
316.166
214.437
312.369
230.651
506.669
124.117
281.423
197.843
329.424
253.357
268.987
236.799
486.284
155.778
341.285
289.859
272.532
241.782
325.144
214.162
420.115
272.282
236.22
246.745
408.93
145.039
277.411
184.308
445.081
227.238
240.31
266.724
428.268
208.945
369.703
265.385
405.752
198.811
229.903
289.47
295.118
188.528
502.04
216.459
320.351
214.451
268.581
194.427
376.73
211.211
340.446
242.468
341.703
198.051
239.51
169.629
431.946
257.55
234.573
328.434
328.629
181.413
219.761
276.287
450.834
168.346
325.81
295.764
428.918
230.777
312.367
184.973
344.293
162.543
289.405
269.901
354.437
232.796
292.903
226.499
344.577
327.578
239.488
259.768
583.561
156.245
273.506
246.618
292.769
243.784
291.579
224.291
490.052
158.664
272.918
223.74
318.811
205.975
312.15
220.555
350.414
201.023
248.431
280.649
288.292
284.467
290.191
223.0
549.587
207.522
229.474
244.396
396.802
205.532
404.076
175.857
461.612
221.294
215.177
303.306
320.97
155.938
303.132
255.522
303.535
174.41
